id;name;code;country;geo_political_name
1;Arica y Parinacota;15;1
2;Tarapacá;01;1
3;Antofagasta;02;1
4;Atacama;03;1
5;Coquimbo;04;1
6;Valparaíso;05;1
7;Libertador Bernardo O'Higgins;06;1
8;Maule;07;1
9;Bío-Bío;08;1
10;Araucanía;09;1
11;Los Ríos;14;1
12;Los Lagos;10;1
13;Aisén del General Carlos Ibáñez del Campo;11;1
14;Magallanes y Antártica Chilena;12;1
15;Metropolitana de Santiago;13;1